
./octez-client --protocol ProtoALphaALphaALphaALphaALphaALphaALphaALphaDdp3zK --mode mockup --no-base-dir-warnings typecheck script tests_python/contracts_alpha/opcodes/not.tz --details
Well typed
Gas remaining: 1039996.837 units remaining
{ parameter bool ;
  storage (option bool) ;
  code { CAR
         /* [ bool ] */ ;
         NOT
         /* [ bool ] */ ;
         SOME
         /* [ option bool ] */ ;
         NIL operation
         /* [ list operation : option bool ] */ ;
         PAIR
         /* [ pair (list operation) (option bool) ] */ } }
