
./octez-client --protocol ProtoALphaALphaALphaALphaALphaALphaALphaALphaDdp3zK --mode mockup --no-base-dir-warnings typecheck script tests_python/contracts_alpha/mini_scenarios/execution_order_caller.tz --details
Well typed
Gas remaining: 1039992.571 units remaining
{ parameter unit ;
  storage (list address) ;
  code { CDR
         /* [ list address ] */ ;
         DUP
         /* [ list address : list address ] */ ;
         MAP { CONTRACT unit
               /* [ option (contract unit) : list address ] */ ;
               ASSERT_SOME ;
               PUSH mutez 0
               /* [ mutez : contract unit : list address ] */ ;
               UNIT
               /* [ unit : mutez : contract unit : list address ] */ ;
               TRANSFER_TOKENS
               /* [ operation : list address ] */ }
         /* [ list operation : list address ] */ ;
         PAIR
         /* [ pair (list operation) (list address) ] */ } }
