
./octez-client --protocol ProtoALphaALphaALphaALphaALphaALphaALphaALphaDdp3zK --mode mockup --no-base-dir-warnings typecheck script tests_python/contracts_alpha/opcodes/utxor.tz --details
Well typed
Gas remaining: 1039966.804 units remaining
{ parameter (pair address address) ;
  storage nat ;
  code { UNPAIR
         /* [ pair address address : nat ] */ ;
         DIP { DUP /* [ nat : nat ] */ }
         /* [ pair address address : nat : nat ] */ ;
         SWAP
         /* [ nat : pair address address : nat ] */ ;
         PUSH nat 5
         /* [ nat : nat : pair address address : nat ] */ ;
         SWAP
         /* [ nat : nat : pair address address : nat ] */ ;
         TICKET
         /* [ option (ticket nat) : pair address address : nat ] */ ;
         ASSERT_SOME ;
         PUSH nat 2
         /* [ nat : ticket nat : pair address address : nat ] */ ;
         PUSH nat 3
         /* [ nat : nat : ticket nat : pair address address : nat ] */ ;
         PAIR
         /* [ pair nat nat : ticket nat : pair address address : nat ] */ ;
         SWAP
         /* [ ticket nat : pair nat nat : pair address address : nat ] */ ;
         SPLIT_TICKET
         /* [ option (pair (ticket nat) (ticket nat)) : pair address address : nat ] */ ;
         ASSERT_SOME ;
         UNPAIR
         /* [ ticket nat : ticket nat : pair address address : nat ] */ ;
         DIP { DIP { DUP
                     /* [ pair address address : pair address address : nat ] */ ;
                     CAR
                     /* [ address : pair address address : nat ] */ ;
                     CONTRACT
                       (pair (ticket nat) nat)
                     /* [ option (contract (pair (ticket nat) nat)) : pair address address : nat ] */ ;
                     ASSERT_SOME ;
                     PUSH mutez
                          0
                     /* [ mutez : contract (pair (ticket nat) nat) : pair address address : nat ] */ }
               /* [ ticket nat : mutez : contract (pair (ticket nat) nat)
                  : pair address address : nat ] */ ;
               PUSH nat
                    2
               /* [ nat : ticket nat : mutez : contract (pair (ticket nat) nat)
                  : pair address address : nat ] */ ;
               SWAP
               /* [ ticket nat : nat : mutez : contract (pair (ticket nat) nat)
                  : pair address address : nat ] */ ;
               PAIR
               /* [ pair (ticket nat) nat : mutez : contract (pair (ticket nat) nat)
                  : pair address address : nat ] */ }
         /* [ ticket nat : pair (ticket nat) nat : mutez
            : contract (pair (ticket nat) nat) : pair address address : nat ] */ ;
         DIP { TRANSFER_TOKENS /* [ operation : pair address address : nat ] */ }
         /* [ ticket nat : operation : pair address address : nat ] */ ;
         SWAP
         /* [ operation : ticket nat : pair address address : nat ] */ ;
         DIP { DIP { CDR
                     /* [ address : nat ] */ ;
                     CONTRACT
                       (pair (ticket nat) nat)
                     /* [ option (contract (pair (ticket nat) nat)) : nat ] */ ;
                     ASSERT_SOME ;
                     PUSH mutez 0
                     /* [ mutez : contract (pair (ticket nat) nat) : nat ] */ }
               /* [ ticket nat : mutez : contract (pair (ticket nat) nat) : nat ] */ ;
               PUSH nat
                    3
               /* [ nat : ticket nat : mutez : contract (pair (ticket nat) nat) : nat ] */ ;
               SWAP
               /* [ ticket nat : nat : mutez : contract (pair (ticket nat) nat) : nat ] */ ;
               PAIR
               /* [ pair (ticket nat) nat : mutez : contract (pair (ticket nat) nat) : nat ] */ }
         /* [ operation : pair (ticket nat) nat : mutez
            : contract (pair (ticket nat) nat) : nat ] */ ;
         DIP { TRANSFER_TOKENS /* [ operation : nat ] */ }
         /* [ operation : operation : nat ] */ ;
         NIL operation
         /* [ list operation : operation : operation : nat ] */ ;
         SWAP
         /* [ operation : list operation : operation : nat ] */ ;
         CONS
         /* [ list operation : operation : nat ] */ ;
         SWAP
         /* [ operation : list operation : nat ] */ ;
         CONS
         /* [ list operation : nat ] */ ;
         PAIR
         /* [ pair (list operation) nat ] */ } }
