
./octez-client --protocol ProtoALphaALphaALphaALphaALphaALphaALphaALphaDdp3zK --mode mockup --no-base-dir-warnings typecheck script tests_python/contracts_alpha/opcodes/or_bytes.tz --details
Well typed
Gas remaining: 1039978.916 units remaining
{ parameter unit ;
  storage unit ;
  code { DROP
         /* [] */ ;
         PUSH bytes 0x05
         /* [ bytes ] */ ;
         PUSH bytes 0x06
         /* [ bytes : bytes ] */ ;
         OR
         /* [ bytes ] */ ;
         PUSH bytes 0x07
         /* [ bytes : bytes ] */ ;
         ASSERT_CMPEQ ;
         PUSH bytes 0x0005
         /* [ bytes ] */ ;
         PUSH bytes 0x0106
         /* [ bytes : bytes ] */ ;
         OR
         /* [ bytes ] */ ;
         PUSH bytes 0x0107
         /* [ bytes : bytes ] */ ;
         ASSERT_CMPEQ ;
         PUSH bytes 0x05
         /* [ bytes ] */ ;
         PUSH bytes 0x0106
         /* [ bytes : bytes ] */ ;
         OR
         /* [ bytes ] */ ;
         PUSH bytes 0x0107
         /* [ bytes : bytes ] */ ;
         ASSERT_CMPEQ ;
         UNIT
         /* [ unit ] */ ;
         NIL @noop operation
         /* [ list operation : unit ] */ ;
         PAIR
         /* [ pair (list operation) unit ] */ } }
