
./octez-client --protocol ProtoALphaALphaALphaALphaALphaALphaALphaALphaDdp3zK --mode mockup --no-base-dir-warnings typecheck script tests_python/contracts_alpha/macros/macro_annotations.tz --details
Well typed
Gas remaining: 1039993.362 units remaining
{ parameter unit ;
  storage (pair (unit %truc) unit) ;
  code { DROP
         /* [] */ ;
         UNIT
         /* [ unit ] */ ;
         UNIT
         /* [ unit : unit ] */ ;
         PAIR %truc
         /* [ pair unit unit ] */ ;
         UNIT
         /* [ unit : pair unit unit ] */ ;
         DUUP @new_storage
         /* [ pair unit unit : unit : pair unit unit ] */ ;
         DIP { DROP /* [ pair unit unit ] */ ; DROP /* [] */ }
         /* [ pair unit unit ] */ ;
         NIL operation
         /* [ list operation : pair unit unit ] */ ;
         PAIR
         /* [ pair (list operation) unit unit ] */ } }
