
./octez-client --protocol ProtoALphaALphaALphaALphaALphaALphaALphaALphaDdp3zK --mode mockup --no-base-dir-warnings typecheck script tests_python/contracts_alpha/opcodes/bytes_of_nat.tz --details
Well typed
Gas remaining: 1039958.808 units remaining
{ parameter unit ;
  storage unit ;
  code { DROP
         /* [] */ ;
         PUSH nat 0
         /* [ nat ] */ ;
         BYTES
         /* [ bytes ] */ ;
         PUSH bytes 0x
         /* [ bytes : bytes ] */ ;
         ASSERT_CMPEQ ;
         PUSH nat 1
         /* [ nat ] */ ;
         BYTES
         /* [ bytes ] */ ;
         PUSH bytes 0x01
         /* [ bytes : bytes ] */ ;
         ASSERT_CMPEQ ;
         PUSH nat 1193046
         /* [ nat ] */ ;
         BYTES
         /* [ bytes ] */ ;
         PUSH bytes 0x123456
         /* [ bytes : bytes ] */ ;
         ASSERT_CMPEQ ;
         PUSH bytes 0x123456
         /* [ bytes ] */ ;
         NAT
         /* [ nat ] */ ;
         PUSH nat 1193046
         /* [ nat : nat ] */ ;
         ASSERT_CMPEQ ;
         PUSH bytes 0x0000123456
         /* [ bytes ] */ ;
         NAT
         /* [ nat ] */ ;
         PUSH nat 1193046
         /* [ nat : nat ] */ ;
         ASSERT_CMPEQ ;
         PUSH bytes 0x
         /* [ bytes ] */ ;
         NAT
         /* [ nat ] */ ;
         PUSH nat 0
         /* [ nat : nat ] */ ;
         ASSERT_CMPEQ ;
         PUSH bytes 0x0000
         /* [ bytes ] */ ;
         NAT
         /* [ nat ] */ ;
         PUSH nat 0
         /* [ nat : nat ] */ ;
         ASSERT_CMPEQ ;
         UNIT
         /* [ unit ] */ ;
         NIL operation
         /* [ list operation : unit ] */ ;
         PAIR
         /* [ pair (list operation) unit ] */ } }
