
./octez-client --protocol ProtoALphaALphaALphaALphaALphaALphaALphaALphaDdp3zK --mode mockup --no-base-dir-warnings typecheck script tests_python/contracts_alpha/opcodes/unpair_field_annotation_mismatch.tz --details
Well typed
Gas remaining: 1039993.685 units remaining
{ parameter (unit :param_unit) ;
  storage (unit :u1) ;
  code { DROP
         /* [] */ ;
         UNIT @b
         /* [ unit ] */ ;
         UNIT @a
         /* [ unit : unit ] */ ;
         PAIR %@ %@
         /* [ pair unit unit ] */ ;
         DUP
         /* [ pair unit unit : pair unit unit ] */ ;
         UNPAIR %c %d
         /* [ unit : unit : pair unit unit ] */ ;
         DROP 2
         /* [ pair unit unit ] */ ;
         DROP
         /* [] */ ;
         UNIT
         /* [ unit ] */ ;
         NIL operation
         /* [ list operation : unit ] */ ;
         PAIR
         /* [ pair (list operation) unit ] */ } }
