
./octez-client --protocol ProtoALphaALphaALphaALphaALphaALphaALphaALphaDdp3zK --mode mockup --no-base-dir-warnings typecheck script tests_python/contracts_alpha/attic/cadr_annotation.tz --details
Well typed
Gas remaining: 1039995.385 units remaining
{ parameter (pair (pair %p1 unit (string %no_name)) bool) ;
  storage unit ;
  code { CAR @param
         /* [ pair (pair unit string) bool ] */ ;
         CADR @name %no_name ;
         DROP
         /* [] */ ;
         UNIT
         /* [ unit ] */ ;
         NIL operation
         /* [ list operation : unit ] */ ;
         PAIR
         /* [ pair (list operation) unit ] */ } }
