
./octez-client --protocol PtKathmankSpLLDALzWw7CGD2j2MtyveTwboEYokqUCP4a1LxMg --mode mockup --no-base-dir-warnings typecheck script tests_python/contracts_014/attic/id.tz --details
Well typed
Gas remaining: 1039997.907 units remaining
{ parameter string ;
  storage string ;
  code { CAR
         /* [ string ] */ ;
         NIL operation
         /* [ list operation : string ] */ ;
         PAIR
         /* [ pair (list operation) string ] */ } }
