
./octez-client --protocol PtKathmankSpLLDALzWw7CGD2j2MtyveTwboEYokqUCP4a1LxMg --mode mockup --no-base-dir-warnings typecheck script tests_python/contracts_014/opcodes/dugn.tz --details
Well typed
Gas remaining: 1039992.716 units remaining
{ parameter (pair (pair (pair (pair nat nat) nat) nat) nat) ;
  storage nat ;
  code { CAR
         /* [ pair (pair (pair (pair nat nat) nat) nat) nat ] */ ;
         UNPAIR
         /* [ pair (pair (pair nat nat) nat) nat : nat ] */ ;
         UNPAIR
         /* [ pair (pair nat nat) nat : nat : nat ] */ ;
         UNPAIR
         /* [ pair nat nat : nat : nat : nat ] */ ;
         UNPAIR
         /* [ nat : nat : nat : nat : nat ] */ ;
         DUG 4
         /* [ nat : nat : nat : nat : nat ] */ ;
         DROP
         /* [ nat : nat : nat : nat ] */ ;
         DROP
         /* [ nat : nat : nat ] */ ;
         DROP
         /* [ nat : nat ] */ ;
         DROP
         /* [ nat ] */ ;
         NIL operation
         /* [ list operation : nat ] */ ;
         PAIR
         /* [ pair (list operation) nat ] */ } }
