
./octez-client --protocol PtKathmankSpLLDALzWw7CGD2j2MtyveTwboEYokqUCP4a1LxMg --mode mockup --no-base-dir-warnings typecheck script tests_python/contracts_014/opcodes/ticket_big_store.tz --details
Well typed
Gas remaining: 1039994.150 units remaining
{ parameter nat ;
  storage (big_map unit (ticket nat)) ;
  code { UNPAIR
         /* [ nat : big_map unit (ticket nat) ] */ ;
         PUSH nat 1
         /* [ nat : nat : big_map unit (ticket nat) ] */ ;
         SWAP
         /* [ nat : nat : big_map unit (ticket nat) ] */ ;
         TICKET
         /* [ ticket nat : big_map unit (ticket nat) ] */ ;
         SOME
         /* [ option (ticket nat) : big_map unit (ticket nat) ] */ ;
         UNIT
         /* [ unit : option (ticket nat) : big_map unit (ticket nat) ] */ ;
         UPDATE
         /* [ big_map unit (ticket nat) ] */ ;
         NIL operation
         /* [ list operation : big_map unit (ticket nat) ] */ ;
         PAIR
         /* [ pair (list operation) (big_map unit (ticket nat)) ] */ } }
