
./octez-client --protocol PtKathmankSpLLDALzWw7CGD2j2MtyveTwboEYokqUCP4a1LxMg --mode mockup --no-base-dir-warnings typecheck script tests_python/contracts_014/opcodes/map_map.tz --details
Well typed
Gas remaining: 1039993.574 units remaining
{ parameter nat ;
  storage (map string nat) ;
  code { UNPAIR
         /* [ nat : map string nat ] */ ;
         SWAP
         /* [ map string nat : nat ] */ ;
         MAP { CDR
               /* [ nat : nat ] */ ;
               DIP { DUP /* [ nat : nat ] */ }
               /* [ nat : nat : nat ] */ ;
               ADD
               /* [ nat : nat ] */ }
         /* [ map string nat : nat ] */ ;
         DIP { DROP /* [] */ }
         /* [ map string nat ] */ ;
         NIL operation
         /* [ list operation : map string nat ] */ ;
         PAIR
         /* [ pair (list operation) (map string nat) ] */ } }
