
./octez-client --protocol PtLimaPtLMwfNinJi9rCfDPWea8dFgTZ1MeJ9f1m2SRic6ayiwW --mode mockup --no-base-dir-warnings typecheck script tests_python/contracts_015/mini_scenarios/default_account.tz --details
Well typed
Gas remaining: 1039993.750 units remaining
{ parameter key_hash ;
  storage unit ;
  code { DIP { UNIT /* [ unit ] */ }
         /* [ pair key_hash unit : unit ] */ ;
         CAR
         /* [ key_hash : unit ] */ ;
         IMPLICIT_ACCOUNT
         /* [ contract unit : unit ] */ ;
         PUSH mutez 100000000
         /* [ mutez : contract unit : unit ] */ ;
         UNIT
         /* [ unit : mutez : contract unit : unit ] */ ;
         TRANSFER_TOKENS
         /* [ operation : unit ] */ ;
         NIL operation
         /* [ list operation : operation : unit ] */ ;
         SWAP
         /* [ operation : list operation : unit ] */ ;
         CONS
         /* [ list operation : unit ] */ ;
         PAIR
         /* [ pair (list operation) unit ] */ } }
