
./octez-client --protocol PtLimaPtLMwfNinJi9rCfDPWea8dFgTZ1MeJ9f1m2SRic6ayiwW --mode mockup --no-base-dir-warnings typecheck script tests_python/contracts_015/opcodes/diff_timestamps.tz --details
Well typed
Gas remaining: 1039995.013 units remaining
{ parameter (pair timestamp timestamp) ;
  storage int ;
  code { CAR
         /* [ pair timestamp timestamp ] */ ;
         DUP
         /* [ pair timestamp timestamp : pair timestamp timestamp ] */ ;
         CAR
         /* [ timestamp : pair timestamp timestamp ] */ ;
         DIP { CDR /* [ timestamp ] */ }
         /* [ timestamp : timestamp ] */ ;
         SUB
         /* [ int ] */ ;
         NIL operation
         /* [ list operation : int ] */ ;
         PAIR
         /* [ pair (list operation) int ] */ } }
