
./octez-client --protocol PtLimaPtLMwfNinJi9rCfDPWea8dFgTZ1MeJ9f1m2SRic6ayiwW --mode mockup --no-base-dir-warnings typecheck script tests_python/contracts_015/opcodes/big_map_to_self.tz --details
Well typed
Gas remaining: 1039987.387 units remaining
{ parameter (or (pair %have_fun (big_map string nat) unit) (unit %default)) ;
  storage (big_map string nat) ;
  code { UNPAIR
         /* [ or (pair (big_map string nat) unit) unit : big_map string nat ] */ ;
         DIP { NIL operation /* [ list operation : big_map string nat ] */ }
         /* [ or (pair (big_map string nat) unit) unit : list operation
            : big_map string nat ] */ ;
         IF_LEFT
           { DROP /* [ list operation : big_map string nat ] */ }
           { DROP
             /* [ list operation : big_map string nat ] */ ;
             SELF %have_fun
             /* [ contract (pair (big_map string nat) unit) : list operation
                : big_map string nat ] */ ;
             PUSH mutez
                  0
             /* [ mutez : contract (pair (big_map string nat) unit) : list operation
                : big_map string nat ] */ ;
             DUP 4
             /* [ big_map string nat : mutez : contract (pair (big_map string nat) unit)
                : list operation : big_map string nat ] */ ;
             PUSH (option nat)
                  (Some 8)
             /* [ option nat : big_map string nat : mutez
                : contract (pair (big_map string nat) unit) : list operation
                : big_map string nat ] */ ;
             PUSH string
                  "hahaha"
             /* [ string : option nat : big_map string nat : mutez
                : contract (pair (big_map string nat) unit) : list operation
                : big_map string nat ] */ ;
             UPDATE
             /* [ big_map string nat : mutez : contract (pair (big_map string nat) unit)
                : list operation : big_map string nat ] */ ;
             UNIT
             /* [ unit : big_map string nat : mutez
                : contract (pair (big_map string nat) unit) : list operation
                : big_map string nat ] */ ;
             SWAP
             /* [ big_map string nat : unit : mutez
                : contract (pair (big_map string nat) unit) : list operation
                : big_map string nat ] */ ;
             PAIR
             /* [ pair (big_map string nat) unit : mutez
                : contract (pair (big_map string nat) unit) : list operation
                : big_map string nat ] */ ;
             TRANSFER_TOKENS
             /* [ operation : list operation : big_map string nat ] */ ;
             CONS
             /* [ list operation : big_map string nat ] */ } ;
         PAIR
         /* [ pair (list operation) (big_map string nat) ] */ } }
