
./octez-client --protocol PtLimaPtLMwfNinJi9rCfDPWea8dFgTZ1MeJ9f1m2SRic6ayiwW --mode mockup --no-base-dir-warnings typecheck script tests_python/contracts_015/opcodes/pexec.tz --details
Well typed
Gas remaining: 1039993.994 units remaining
{ parameter nat ;
  storage nat ;
  code { LAMBDA
           (pair nat nat)
           nat
           { UNPAIR /* [ nat : nat ] */ ; ADD /* [ nat ] */ }
         /* [ lambda (pair nat nat) nat : pair nat nat ] */ ;
         SWAP
         /* [ pair nat nat : lambda (pair nat nat) nat ] */ ;
         UNPAIR
         /* [ nat : nat : lambda (pair nat nat) nat ] */ ;
         DIP { APPLY /* [ lambda nat nat ] */ }
         /* [ nat : lambda nat nat ] */ ;
         EXEC
         /* [ nat ] */ ;
         NIL operation
         /* [ list operation : nat ] */ ;
         PAIR
         /* [ pair (list operation) nat ] */ } }
