
./octez-client --protocol PtMumbaiaByZhjUPaSHEdbLZ6LUzw2YdzbGE2VX2oHSKAS4K2MD --mode mockup --no-base-dir-warnings typecheck script tests_python/contracts_016/attic/accounts.tz --details
Well typed
Gas remaining: 1039932.585 units remaining
{ parameter
    (or (key_hash %Initialize)
        (pair %Withdraw (key %from) (pair (mutez %withdraw_amount) (signature %sig)))) ;
  storage (map :stored_balance key_hash mutez) ;
  code { DUP
         /* [ pair (or key_hash (pair key mutez signature)) (map key_hash mutez)
            : pair (or key_hash (pair key mutez signature)) (map key_hash mutez) ] */ ;
         CAR
         /* [ or key_hash (pair key mutez signature)
            : pair (or key_hash (pair key mutez signature)) (map key_hash mutez) ] */ ;
         IF_LEFT
           { DUP
             /* [ key_hash : key_hash
                : pair (or key_hash (pair key mutez signature)) (map key_hash mutez) ] */ ;
             DIIP { CDR %stored_balance
                    /* [ map key_hash mutez ] */ ;
                    DUP
                    /* [ map key_hash mutez : map key_hash mutez ] */ }
             /* [ key_hash : key_hash : map key_hash mutez : map key_hash mutez ] */ ;
             DIP { SWAP /* [ map key_hash mutez : key_hash : map key_hash mutez ] */ }
             /* [ key_hash : map key_hash mutez : key_hash : map key_hash mutez ] */ ;
             GET @opt_prev_balance
             /* [ option mutez : key_hash : map key_hash mutez ] */ ;
             IF_SOME
               { RENAME @previous_balance
                 /* [ mutez : key_hash : map key_hash mutez ] */ ;
                 AMOUNT
                 /* [ mutez : mutez : key_hash : map key_hash mutez ] */ ;
                 ADD
                 /* [ mutez : key_hash : map key_hash mutez ] */ ;
                 SOME
                 /* [ option mutez : key_hash : map key_hash mutez ] */ ;
                 SWAP
                 /* [ key_hash : option mutez : map key_hash mutez ] */ ;
                 UPDATE
                 /* [ map key_hash mutez ] */ ;
                 NIL operation
                 /* [ list operation : map key_hash mutez ] */ ;
                 PAIR
                 /* [ pair (list operation) (map key_hash mutez) ] */ }
               { DIP { AMOUNT
                       /* [ mutez : map key_hash mutez ] */ ;
                       SOME
                       /* [ option mutez : map key_hash mutez ] */ }
                 /* [ key_hash : option mutez : map key_hash mutez ] */ ;
                 UPDATE
                 /* [ map key_hash mutez ] */ ;
                 NIL operation
                 /* [ list operation : map key_hash mutez ] */ ;
                 PAIR
                 /* [ pair (list operation) (map key_hash mutez) ] */ } }
           { DUP
             /* [ pair key mutez signature : pair key mutez signature
                : pair (or key_hash (pair key mutez signature)) (map key_hash mutez) ] */ ;
             DUP
             /* [ pair key mutez signature : pair key mutez signature
                : pair key mutez signature
                : pair (or key_hash (pair key mutez signature)) (map key_hash mutez) ] */ ;
             DUP
             /* [ pair key mutez signature : pair key mutez signature
                : pair key mutez signature : pair key mutez signature
                : pair (or key_hash (pair key mutez signature)) (map key_hash mutez) ] */ ;
             DUP
             /* [ pair key mutez signature : pair key mutez signature
                : pair key mutez signature : pair key mutez signature
                : pair key mutez signature
                : pair (or key_hash (pair key mutez signature)) (map key_hash mutez) ] */ ;
             CAR %from
             /* [ key : pair key mutez signature : pair key mutez signature
                : pair key mutez signature : pair key mutez signature
                : pair (or key_hash (pair key mutez signature)) (map key_hash mutez) ] */ ;
             DIIP { CDAR %withdraw_amount ;
                    PACK
                    /* [ bytes : pair key mutez signature : pair key mutez signature
                       : pair (or key_hash (pair key mutez signature)) (map key_hash mutez) ] */ ;
                    BLAKE2B @signed_amount
                    /* [ bytes : pair key mutez signature : pair key mutez signature
                       : pair (or key_hash (pair key mutez signature)) (map key_hash mutez) ] */ }
             /* [ key : pair key mutez signature : bytes : pair key mutez signature
                : pair key mutez signature
                : pair (or key_hash (pair key mutez signature)) (map key_hash mutez) ] */ ;
             DIP { CDDR %sig }
             /* [ key : signature : bytes : pair key mutez signature
                : pair key mutez signature
                : pair (or key_hash (pair key mutez signature)) (map key_hash mutez) ] */ ;
             CHECK_SIGNATURE
             /* [ bool : pair key mutez signature : pair key mutez signature
                : pair (or key_hash (pair key mutez signature)) (map key_hash mutez) ] */ ;
             IF { /* [ pair key mutez signature : pair key mutez signature
                     : pair (or key_hash (pair key mutez signature)) (map key_hash mutez) ] */ }
                { PUSH string
                       "Bad signature"
                  /* [ string : pair key mutez signature : pair key mutez signature
                     : pair (or key_hash (pair key mutez signature)) (map key_hash mutez) ] */ ;
                  FAILWITH
                  /* [] */ } ;
             DIIP { CDR %stored_balance
                    /* [ map key_hash mutez ] */ ;
                    DUP
                    /* [ map key_hash mutez : map key_hash mutez ] */ }
             /* [ pair key mutez signature : pair key mutez signature : map key_hash mutez
                : map key_hash mutez ] */ ;
             CAR %from
             /* [ key : pair key mutez signature : map key_hash mutez : map key_hash mutez ] */ ;
             HASH_KEY @from_hash
             /* [ key_hash : pair key mutez signature : map key_hash mutez
                : map key_hash mutez ] */ ;
             DUP
             /* [ key_hash : key_hash : pair key mutez signature : map key_hash mutez
                : map key_hash mutez ] */ ;
             DIP { DIP { SWAP
                         /* [ map key_hash mutez : pair key mutez signature : map key_hash mutez ] */ }
                   /* [ key_hash : map key_hash mutez : pair key mutez signature
                      : map key_hash mutez ] */ ;
                   SWAP
                   /* [ map key_hash mutez : key_hash : pair key mutez signature
                      : map key_hash mutez ] */ }
             /* [ key_hash : map key_hash mutez : key_hash : pair key mutez signature
                : map key_hash mutez ] */ ;
             GET
             /* [ option mutez : key_hash : pair key mutez signature : map key_hash mutez ] */ ;
             IF_NONE
               { PUSH string
                      "Account does not exist"
                 /* [ string : key_hash : pair key mutez signature : map key_hash mutez ] */ ;
                 PAIR
                 /* [ pair string key_hash : pair key mutez signature : map key_hash mutez ] */ ;
                 FAILWITH
                 /* [] */ }
               { RENAME @previous_balance
                 /* [ mutez : key_hash : pair key mutez signature : map key_hash mutez ] */ ;
                 DIP { DROP /* [ pair key mutez signature : map key_hash mutez ] */ }
                 /* [ mutez : pair key mutez signature : map key_hash mutez ] */ ;
                 DUP
                 /* [ mutez : mutez : pair key mutez signature : map key_hash mutez ] */ ;
                 DIIP { DUP
                        /* [ pair key mutez signature : pair key mutez signature : map key_hash mutez ] */ ;
                        CDAR %withdraw_amount ;
                        DUP
                        /* [ mutez : mutez : pair key mutez signature : map key_hash mutez ] */ }
                 /* [ mutez : mutez : mutez : mutez : pair key mutez signature
                    : map key_hash mutez ] */ ;
                 DIP { CMPLT @not_enough }
                 /* [ mutez : bool : mutez : pair key mutez signature : map key_hash mutez ] */ ;
                 SWAP
                 /* [ bool : mutez : mutez : pair key mutez signature : map key_hash mutez ] */ ;
                 IF { PUSH string
                           "Not enough funds"
                      /* [ string : mutez : mutez : pair key mutez signature : map key_hash mutez ] */ ;
                      FAILWITH
                      /* [] */ }
                    { SUB_MUTEZ @new_balance
                      /* [ option mutez : pair key mutez signature : map key_hash mutez ] */ ;
                      ASSERT_SOME ;
                      DIP { DUP
                            /* [ pair key mutez signature : pair key mutez signature : map key_hash mutez ] */ ;
                            DIP { SWAP /* [ map key_hash mutez : pair key mutez signature ] */ }
                            /* [ pair key mutez signature : map key_hash mutez : pair key mutez signature ] */ }
                      /* [ mutez : pair key mutez signature : map key_hash mutez
                         : pair key mutez signature ] */ ;
                      DUP
                      /* [ mutez : mutez : pair key mutez signature : map key_hash mutez
                         : pair key mutez signature ] */ ;
                      PUSH @zero
                        mutez
                        0
                      /* [ mutez : mutez : mutez : pair key mutez signature : map key_hash mutez
                         : pair key mutez signature ] */ ;
                      CMPEQ @null_balance ;
                      IF { DROP
                           /* [ pair key mutez signature : map key_hash mutez : pair key mutez signature ] */ ;
                           NONE @new_balance
                             mutez
                           /* [ option mutez : pair key mutez signature : map key_hash mutez
                              : pair key mutez signature ] */ }
                         { SOME @new_balance
                           /* [ option mutez : pair key mutez signature : map key_hash mutez
                              : pair key mutez signature ] */ } ;
                      SWAP
                      /* [ pair key mutez signature : option mutez : map key_hash mutez
                         : pair key mutez signature ] */ ;
                      CAR %from
                      /* [ key : option mutez : map key_hash mutez : pair key mutez signature ] */ ;
                      HASH_KEY @from_hash
                      /* [ key_hash : option mutez : map key_hash mutez : pair key mutez signature ] */ ;
                      UPDATE
                      /* [ map key_hash mutez : pair key mutez signature ] */ ;
                      SWAP
                      /* [ pair key mutez signature : map key_hash mutez ] */ ;
                      DUP
                      /* [ pair key mutez signature : pair key mutez signature : map key_hash mutez ] */ ;
                      CDAR %withdraw_amount ;
                      DIP { CAR %from
                            /* [ key : map key_hash mutez ] */ ;
                            HASH_KEY @from_hash
                            /* [ key_hash : map key_hash mutez ] */ ;
                            IMPLICIT_ACCOUNT @from_account
                            /* [ contract unit : map key_hash mutez ] */ }
                      /* [ mutez : contract unit : map key_hash mutez ] */ ;
                      UNIT
                      /* [ unit : mutez : contract unit : map key_hash mutez ] */ ;
                      TRANSFER_TOKENS @withdraw_transfer_op
                      /* [ operation : map key_hash mutez ] */ ;
                      NIL operation
                      /* [ list operation : operation : map key_hash mutez ] */ ;
                      SWAP
                      /* [ operation : list operation : map key_hash mutez ] */ ;
                      CONS
                      /* [ list operation : map key_hash mutez ] */ ;
                      PAIR
                      /* [ pair (list operation) (map key_hash mutez) ] */ } } } } }
