
./octez-client --protocol PtMumbaiaByZhjUPaSHEdbLZ6LUzw2YdzbGE2VX2oHSKAS4K2MD --mode mockup --no-base-dir-warnings typecheck script tests_python/contracts_016/mini_scenarios/big_map_read.tz --details
Well typed
Gas remaining: 1039994.234 units remaining
{ storage nat ;
  parameter (big_map nat nat) ;
  code { CAR
         /* [ big_map nat nat ] */ ;
         PUSH nat 1
         /* [ nat : big_map nat nat ] */ ;
         GET
         /* [ option nat ] */ ;
         ASSERT_SOME ;
         NIL operation
         /* [ list operation : nat ] */ ;
         PAIR
         /* [ pair (list operation) nat ] */ } }
