
./octez-client --protocol PtMumbaiaByZhjUPaSHEdbLZ6LUzw2YdzbGE2VX2oHSKAS4K2MD --mode mockup --no-base-dir-warnings typecheck script tests_python/contracts_016/opcodes/lsr_bytes.tz --details
Well typed
Gas remaining: 1039959.946 units remaining
{ parameter unit ;
  storage unit ;
  code { DROP
         /* [] */ ;
         PUSH nat 1
         /* [ nat ] */ ;
         PUSH bytes 0x06
         /* [ bytes : nat ] */ ;
         LSR
         /* [ bytes ] */ ;
         PUSH bytes 0x03
         /* [ bytes : bytes ] */ ;
         ASSERT_CMPEQ ;
         PUSH nat 8
         /* [ nat ] */ ;
         PUSH bytes 0x06
         /* [ bytes : nat ] */ ;
         LSR
         /* [ bytes ] */ ;
         PUSH bytes 0x
         /* [ bytes : bytes ] */ ;
         ASSERT_CMPEQ ;
         PUSH nat 1
         /* [ nat ] */ ;
         PUSH bytes 0x0006
         /* [ bytes : nat ] */ ;
         LSR
         /* [ bytes ] */ ;
         PUSH bytes 0x0003
         /* [ bytes : bytes ] */ ;
         ASSERT_CMPEQ ;
         PUSH nat 8
         /* [ nat ] */ ;
         PUSH bytes 0x0006
         /* [ bytes : nat ] */ ;
         LSR
         /* [ bytes ] */ ;
         PUSH bytes 0x00
         /* [ bytes : bytes ] */ ;
         ASSERT_CMPEQ ;
         PUSH nat 0
         /* [ nat ] */ ;
         PUSH bytes 0x001234
         /* [ bytes : nat ] */ ;
         LSR
         /* [ bytes ] */ ;
         PUSH bytes 0x001234
         /* [ bytes : bytes ] */ ;
         ASSERT_CMPEQ ;
         PUSH nat 30
         /* [ nat ] */ ;
         PUSH bytes 0x001234
         /* [ bytes : nat ] */ ;
         LSR
         /* [ bytes ] */ ;
         PUSH bytes 0x
         /* [ bytes : bytes ] */ ;
         ASSERT_CMPEQ ;
         UNIT
         /* [ unit ] */ ;
         NIL @noop operation
         /* [ list operation : unit ] */ ;
         PAIR
         /* [ pair (list operation) unit ] */ } }
