
./octez-client --protocol PtMumbaiaByZhjUPaSHEdbLZ6LUzw2YdzbGE2VX2oHSKAS4K2MD --mode mockup --no-base-dir-warnings typecheck script tests_python/contracts_016/opcodes/contract.tz --details
Well typed
Gas remaining: 1039994.190 units remaining
{ parameter address ;
  storage unit ;
  code { CAR
         /* [ address ] */ ;
         CONTRACT unit
         /* [ option (contract unit) ] */ ;
         ASSERT_SOME ;
         DROP
         /* [] */ ;
         UNIT
         /* [ unit ] */ ;
         NIL operation
         /* [ list operation : unit ] */ ;
         PAIR
         /* [ pair (list operation) unit ] */ } }
