
./octez-client --protocol PtMumbaiaByZhjUPaSHEdbLZ6LUzw2YdzbGE2VX2oHSKAS4K2MD --mode mockup --no-base-dir-warnings run script ./tests_python/contracts_016/opcodes/get_map_value.tz on storage '(Pair None { Elt "hello" "hi" })' and input '""' --level 1 --trace-stack
storage
  (Pair None { Elt "hello" "hi" })
emitted operations
  
big_map diff
  
trace
  - location: 12 (just consumed gas: 10.830)
    [ (Pair "" None { Elt "hello" "hi" }) ]
  - location: 12 (just consumed gas: 0.010)
    [ (Pair "" None { Elt "hello" "hi" })
      (Pair "" None { Elt "hello" "hi" }) ]
  - location: 13 (just consumed gas: 0.010)
    [ ""
      (Pair "" None { Elt "hello" "hi" }) ]
  - location: 14 (just consumed gas: 0)
    [ (Pair "" None { Elt "hello" "hi" }) ]
  - location: 17 (just consumed gas: 0.010)
    [ (Pair None { Elt "hello" "hi" }) ]
  - location: 18 (just consumed gas: 0.010)
    [ { Elt "hello" "hi" } ]
  - location: 19 (just consumed gas: 0.010)
    [ { Elt "hello" "hi" }
      { Elt "hello" "hi" } ]
  - location: 14 (just consumed gas: 0.025)
    [ ""
      { Elt "hello" "hi" }
      { Elt "hello" "hi" } ]
  - location: 20 (just consumed gas: 0.080)
    [ None
      { Elt "hello" "hi" } ]
  - location: 21 (just consumed gas: 0.010)
    [ (Pair None { Elt "hello" "hi" }) ]
  - location: 22 (just consumed gas: 0.010)
    [ {}
      (Pair None { Elt "hello" "hi" }) ]
  - location: 24 (just consumed gas: 0.010)
    [ (Pair {} None { Elt "hello" "hi" }) ]

