
./octez-client --protocol PtMumbaiaByZhjUPaSHEdbLZ6LUzw2YdzbGE2VX2oHSKAS4K2MD --mode mockup --no-base-dir-warnings run script ./tests_python/contracts_016/opcodes/not_binary.tz on storage None and input '(Left -9)' --level 1 --trace-stack
storage
  (Some 8)
emitted operations
  
big_map diff
  
trace
  - location: 10 (just consumed gas: 6.965)
    [ (Pair (Left -9) None) ]
  - location: 10 (just consumed gas: 0.010)
    [ (Left -9) ]
  - location: 11 (just consumed gas: 0)
    [ -9 ]
  - location: 13 (just consumed gas: 0.025)
    [ 8 ]
  - location: 11 (just consumed gas: 0.015)
    [ 8 ]
  - location: 16 (just consumed gas: 0.010)
    [ (Some 8) ]
  - location: 17 (just consumed gas: 0.010)
    [ {}
      (Some 8) ]
  - location: 19 (just consumed gas: 0.010)
    [ (Pair {} (Some 8)) ]

