
./octez-client --protocol PtMumbaiaByZhjUPaSHEdbLZ6LUzw2YdzbGE2VX2oHSKAS4K2MD --mode mockup --no-base-dir-warnings run script ./tests_python/contracts_016/opcodes/bls12_381_fr_to_int.tz on storage 0 and input 0x01 --level 1 --trace-stack
storage
  1
emitted operations
  
big_map diff
  
trace
  - location: 7 (just consumed gas: 4.387)
    [ (Pair 0x0100000000000000000000000000000000000000000000000000000000000000 0) ]
  - location: 7 (just consumed gas: 0.010)
    [ 0x0100000000000000000000000000000000000000000000000000000000000000 ]
  - location: 8 (just consumed gas: 0.115)
    [ 1 ]
  - location: 9 (just consumed gas: 0.010)
    [ {}
      1 ]
  - location: 11 (just consumed gas: 0.010)
    [ (Pair {} 1) ]

