
./octez-client --protocol PtMumbaiaByZhjUPaSHEdbLZ6LUzw2YdzbGE2VX2oHSKAS4K2MD --mode mockup --no-base-dir-warnings run script ./tests_python/contracts_016/opcodes/set_size.tz on storage 111 and input '{ 1 ; 2 ; 3 }' --level 1 --trace-stack
storage
  3
emitted operations
  
big_map diff
  
trace
  - location: 8 (just consumed gas: 5.155)
    [ (Pair { 1 ; 2 ; 3 } 111) ]
  - location: 8 (just consumed gas: 0.010)
    [ { 1 ; 2 ; 3 } ]
  - location: 9 (just consumed gas: 0.010)
    [ 3 ]
  - location: 10 (just consumed gas: 0.010)
    [ {}
      3 ]
  - location: 12 (just consumed gas: 0.010)
    [ (Pair {} 3) ]

