
./octez-client --protocol PtMumbaiaByZhjUPaSHEdbLZ6LUzw2YdzbGE2VX2oHSKAS4K2MD --mode mockup --no-base-dir-warnings run script ./tests_python/contracts_016/opcodes/diff_timestamps.tz on storage 111 and input '(Pair 0 1)' --level 1 --trace-stack
storage
  -1
emitted operations
  
big_map diff
  
trace
  - location: 9 (just consumed gas: 7.437)
    [ (Pair (Pair "1970-01-01T00:00:00Z" "1970-01-01T00:00:01Z") 111) ]
  - location: 9 (just consumed gas: 0.010)
    [ (Pair "1970-01-01T00:00:00Z" "1970-01-01T00:00:01Z") ]
  - location: 10 (just consumed gas: 0.010)
    [ (Pair "1970-01-01T00:00:00Z" "1970-01-01T00:00:01Z")
      (Pair "1970-01-01T00:00:00Z" "1970-01-01T00:00:01Z") ]
  - location: 11 (just consumed gas: 0.010)
    [ "1970-01-01T00:00:00Z"
      (Pair "1970-01-01T00:00:00Z" "1970-01-01T00:00:01Z") ]
  - location: 12 (just consumed gas: 0)
    [ (Pair "1970-01-01T00:00:00Z" "1970-01-01T00:00:01Z") ]
  - location: 14 (just consumed gas: 0.010)
    [ "1970-01-01T00:00:01Z" ]
  - location: 12 (just consumed gas: 0.025)
    [ "1970-01-01T00:00:00Z"
      "1970-01-01T00:00:01Z" ]
  - location: 15 (just consumed gas: 0.035)
    [ -1 ]
  - location: 16 (just consumed gas: 0.010)
    [ {}
      -1 ]
  - location: 18 (just consumed gas: 0.010)
    [ (Pair {} -1) ]

