
./octez-client --protocol PtMumbaiaByZhjUPaSHEdbLZ6LUzw2YdzbGE2VX2oHSKAS4K2MD --mode mockup --no-base-dir-warnings run script ./tests_python/contracts_016/opcodes/bls12_381_z_fr_int.tz on storage 0x0100000000000000000000000000000000000000000000000000000000000000 and input 0 --level 1 --trace-stack
storage
  0x0000000000000000000000000000000000000000000000000000000000000000
emitted operations
  
big_map diff
  
trace
  - location: 7 (just consumed gas: 4.940)
    [ (Pair 0 0x0100000000000000000000000000000000000000000000000000000000000000) ]
  - location: 7 (just consumed gas: 0.010)
    [ 0
      0x0100000000000000000000000000000000000000000000000000000000000000 ]
  - location: 8 (just consumed gas: 0.010)
    [ 0x0100000000000000000000000000000000000000000000000000000000000000
      0 ]
  - location: 9 (just consumed gas: 0.265)
    [ 0x0000000000000000000000000000000000000000000000000000000000000000 ]
  - location: 10 (just consumed gas: 0.010)
    [ {}
      0x0000000000000000000000000000000000000000000000000000000000000000 ]
  - location: 12 (just consumed gas: 0.010)
    [ (Pair {} 0x0000000000000000000000000000000000000000000000000000000000000000) ]

