
./octez-client --protocol PtMumbaiaByZhjUPaSHEdbLZ6LUzw2YdzbGE2VX2oHSKAS4K2MD --mode mockup --no-base-dir-warnings run script ./tests_python/contracts_016/opcodes/map_size.tz on storage 111 and input '{ Elt "a" 1 }' --level 1 --trace-stack
storage
  1
emitted operations
  
big_map diff
  
trace
  - location: 9 (just consumed gas: 4.829)
    [ (Pair { Elt "a" 1 } 111) ]
  - location: 9 (just consumed gas: 0.010)
    [ { Elt "a" 1 } ]
  - location: 10 (just consumed gas: 0.010)
    [ 1 ]
  - location: 11 (just consumed gas: 0.010)
    [ {}
      1 ]
  - location: 13 (just consumed gas: 0.010)
    [ (Pair {} 1) ]

