
./octez-client --protocol PtMumbaiaByZhjUPaSHEdbLZ6LUzw2YdzbGE2VX2oHSKAS4K2MD --mode mockup --no-base-dir-warnings run script ./tests_python/contracts_016/opcodes/not_bytes.tz on storage Unit and input Unit --level 1 --trace-stack
storage
  Unit
emitted operations
  
big_map diff
  
trace
  - location: 7 (just consumed gas: 25.094)
    [ (Pair Unit Unit) ]
  - location: 7 (just consumed gas: 0.010)
    [  ]
  - location: 8 (just consumed gas: 0.010)
    [ 0x05 ]
  - location: 11 (just consumed gas: 0.030)
    [ 0xfa ]
  - location: 12 (just consumed gas: 0.010)
    [ 0xfa
      0xfa ]
  - location: 17 (just consumed gas: 0.035)
    [ 0 ]
  - location: 18 (just consumed gas: 0.010)
    [ True ]
  - location: 19 (just consumed gas: 0)
    [  ]
  - location: 19 (just consumed gas: 0.015)
    [  ]
  - location: 25 (just consumed gas: 0.010)
    [ 0x0005 ]
  - location: 28 (just consumed gas: 0.031)
    [ 0xfffa ]
  - location: 29 (just consumed gas: 0.010)
    [ 0xfffa
      0xfffa ]
  - location: 34 (just consumed gas: 0.035)
    [ 0 ]
  - location: 35 (just consumed gas: 0.010)
    [ True ]
  - location: 36 (just consumed gas: 0)
    [  ]
  - location: 36 (just consumed gas: 0.015)
    [  ]
  - location: 42 (just consumed gas: 0.010)
    [ 0xff05 ]
  - location: 45 (just consumed gas: 0.031)
    [ 0x00fa ]
  - location: 46 (just consumed gas: 0.010)
    [ 0x00fa
      0x00fa ]
  - location: 51 (just consumed gas: 0.035)
    [ 0 ]
  - location: 52 (just consumed gas: 0.010)
    [ True ]
  - location: 53 (just consumed gas: 0)
    [  ]
  - location: 53 (just consumed gas: 0.015)
    [  ]
  - location: 59 (just consumed gas: 0.010)
    [ Unit ]
  - location: 60 (just consumed gas: 0.010)
    [ {}
      Unit ]
  - location: 62 (just consumed gas: 0.010)
    [ (Pair {} Unit) ]

