
./octez-client --protocol PtMumbaiaByZhjUPaSHEdbLZ6LUzw2YdzbGE2VX2oHSKAS4K2MD --mode mockup --no-base-dir-warnings run script ./tests_python/contracts_016/opcodes/map_size.tz on storage 111 and input '{}' --level 1 --trace-stack
storage
  0
emitted operations
  
big_map diff
  
trace
  - location: 9 (just consumed gas: 4.523)
    [ (Pair {} 111) ]
  - location: 9 (just consumed gas: 0.010)
    [ {} ]
  - location: 10 (just consumed gas: 0.010)
    [ 0 ]
  - location: 11 (just consumed gas: 0.010)
    [ {}
      0 ]
  - location: 13 (just consumed gas: 0.010)
    [ (Pair {} 0) ]

